{
  "domain": "dp-original.eu.auth0.com",
  "clientID": "exgfD0QNxpMDakG8vEjXUx1RosoZ2glN",
  "redirectUri": "http://localhost:8080/auth/google/",
  "audience": "https://dp-original.eu.auth0.com/userinfo",
  "responseType": "token id_token",
  "scope": "openid profile email"
}
